{
    "30": 59.74,
    "31": 61.66,
    "32": 63.55,
    "33": 65.43,
    "34": 67.28,
    "35": 69.1,
    "36": 70.88,
    "37": 72.61,
    "38": 74.3,
    "39": 75.92,
    "40": 77.48,
    "41": 78.97,
    "42": 80.37,
    "43": 81.68,
    "44": 82.9,
    "45": 84.03,
    "46": 85.07,
    "47": 85.98,
    "48": 86.79,
    "49": 87.47,
    "50": 88.02,
    "51": 88.45,
    "52": 88.76,
    "53": 88.96,
    "54": 89.04,
    "55": 89.02,
    "56": 88.9,
    "57": 88.67,
    "58": 88.36,
    "59": 87.96,
    "60": 87.49,
    "61": 86.95,
    "62": 86.34,
    "63": 85.67,
    "64": 84.96,
    "65": 84.2,
    "66": 83.4,
    "67": 82.56,
    "68": 81.69,
    "69": 80.8
}